<?xml version="1.0" encoding="UTF-8" standalone="no"?>
<!DOCTYPE svg PUBLIC "-//W3C//DTD SVG 1.1//EN"
 "http://www.w3.org/Graphics/SVG/1.1/DTD/svg11.dtd">
<!-- Generated by graphviz version 2.26.3 (20100126.1600)
 -->
<!-- Title: G Pages: 1 -->
<svg width="1522pt" height="320pt"
 viewBox="0.00 0.00 1522.00 320.00" xmlns="http://www.w3.org/2000/svg" xmlns:xlink="http://www.w3.org/1999/xlink">
<g id="graph1" class="graph" transform="scale(1 1) rotate(0) translate(4 316)">
<title>G</title>
<!-- Node1 -->
<g id="node1" class="node"><title>Node1</title>
<polygon fill="#bfbfbf" stroke="black" points="1059,-290.5 1059,-311.5 1155,-311.5 1155,-290.5 1059,-290.5"/>
<text text-anchor="middle" x="1107" y="-298.5" font-family="Helvetica,sans-Serif" font-size="10.00">src/FileCache.cpp</text>
</g>
<!-- Node2 -->
<g id="node3" class="node"><title>Node2</title>
<a xlink:href="_file_cache_8hpp.html" target="_top" xlink:title="Contains definition of class FileCache.">
<polygon fill="none" stroke="black" points="173,-232.5 173,-253.5 253,-253.5 253,-232.5 173,-232.5"/>
<text text-anchor="middle" x="213" y="-240.5" font-family="Helvetica,sans-Serif" font-size="10.00">FileCache.hpp</text>
</a>
</g>
<!-- Node1&#45;&gt;Node2 -->
<g id="edge2" class="edge"><title>Node1&#45;&gt;Node2</title>
<path fill="none" stroke="midnightblue" d="M1058.93,-297.882C904.446,-287.859 421.496,-256.527 263.547,-246.279"/>
<polygon fill="midnightblue" stroke="midnightblue" points="263.388,-242.762 253.182,-245.607 262.934,-249.747 263.388,-242.762"/>
</g>
<!-- Node11 -->
<g id="node24" class="node"><title>Node11</title>
<polygon fill="none" stroke="#bfbfbf" points="717.5,-0.5 717.5,-21.5 758.5,-21.5 758.5,-0.5 717.5,-0.5"/>
<text text-anchor="middle" x="738" y="-8.5" font-family="Helvetica,sans-Serif" font-size="10.00">ctime</text>
</g>
<!-- Node1&#45;&gt;Node11 -->
<g id="edge36" class="edge"><title>Node1&#45;&gt;Node11</title>
<path fill="none" stroke="midnightblue" d="M1058.82,-298.256C955.246,-291.977 718.388,-275.439 689,-254 661.84,-234.186 658,-218.62 658,-185 658,-185 658,-185 658,-127 658,-86.0777 692.157,-49.1067 715.833,-28.3957"/>
<polygon fill="midnightblue" stroke="midnightblue" points="718.306,-30.8888 723.698,-21.7683 713.795,-25.5361 718.306,-30.8888"/>
</g>
<!-- Node12 -->
<g id="node26" class="node"><title>Node12</title>
<polygon fill="none" stroke="#bfbfbf" points="864.5,-0.5 864.5,-21.5 907.5,-21.5 907.5,-0.5 864.5,-0.5"/>
<text text-anchor="middle" x="886" y="-8.5" font-family="Helvetica,sans-Serif" font-size="10.00">cstdio</text>
</g>
<!-- Node1&#45;&gt;Node12 -->
<g id="edge40" class="edge"><title>Node1&#45;&gt;Node12</title>
<path fill="none" stroke="midnightblue" d="M1130.32,-290.498C1199.96,-258.444 1399.42,-161.304 1363,-116 1306.55,-45.7678 1015.06,-19.7796 917.703,-12.9791"/>
<polygon fill="midnightblue" stroke="midnightblue" points="917.809,-9.47832 907.595,-12.2939 917.335,-16.4623 917.809,-9.47832"/>
</g>
<!-- Node14 -->
<g id="node31" class="node"><title>Node14</title>
<polygon fill="none" stroke="#bfbfbf" points="1268,-232.5 1268,-253.5 1312,-253.5 1312,-232.5 1268,-232.5"/>
<text text-anchor="middle" x="1290" y="-240.5" font-family="Helvetica,sans-Serif" font-size="10.00">cerrno</text>
</g>
<!-- Node1&#45;&gt;Node14 -->
<g id="edge34" class="edge"><title>Node1&#45;&gt;Node14</title>
<path fill="none" stroke="midnightblue" d="M1140.14,-290.497C1173.65,-279.876 1225.08,-263.575 1258.13,-253.1"/>
<polygon fill="midnightblue" stroke="midnightblue" points="1259.28,-256.407 1267.76,-250.05 1257.17,-249.735 1259.28,-256.407"/>
</g>
<!-- Node15 -->
<g id="node34" class="node"><title>Node15</title>
<polygon fill="none" stroke="#bfbfbf" points="1330,-232.5 1330,-253.5 1382,-253.5 1382,-232.5 1330,-232.5"/>
<text text-anchor="middle" x="1356" y="-240.5" font-family="Helvetica,sans-Serif" font-size="10.00">sstream</text>
</g>
<!-- Node1&#45;&gt;Node15 -->
<g id="edge38" class="edge"><title>Node1&#45;&gt;Node15</title>
<path fill="none" stroke="midnightblue" d="M1155.31,-291.658C1196.67,-283.377 1257.96,-270.429 1319.78,-254.176"/>
<polygon fill="midnightblue" stroke="midnightblue" points="1320.93,-257.49 1329.7,-251.54 1319.14,-250.725 1320.93,-257.49"/>
</g>
<!-- Node16 -->
<g id="node37" class="node"><title>Node16</title>
<polygon fill="none" stroke="#bfbfbf" points="1400,-232.5 1400,-253.5 1446,-253.5 1446,-232.5 1400,-232.5"/>
<text text-anchor="middle" x="1423" y="-240.5" font-family="Helvetica,sans-Serif" font-size="10.00">cstring</text>
</g>
<!-- Node1&#45;&gt;Node16 -->
<g id="edge42" class="edge"><title>Node1&#45;&gt;Node16</title>
<path fill="none" stroke="midnightblue" d="M1155.13,-294.031C1219.98,-284.479 1333.01,-267.229 1389.79,-253.94"/>
<polygon fill="midnightblue" stroke="midnightblue" points="1390.84,-257.287 1399.72,-251.507 1389.17,-250.489 1390.84,-257.287"/>
</g>
<!-- Node17 -->
<g id="node39" class="node"><title>Node17</title>
<polygon fill="none" stroke="#bfbfbf" points="1463.5,-232.5 1463.5,-253.5 1514.5,-253.5 1514.5,-232.5 1463.5,-232.5"/>
<text text-anchor="middle" x="1489" y="-240.5" font-family="Helvetica,sans-Serif" font-size="10.00">unistd.h</text>
</g>
<!-- Node1&#45;&gt;Node17 -->
<g id="edge44" class="edge"><title>Node1&#45;&gt;Node17</title>
<path fill="none" stroke="midnightblue" d="M1155.05,-297.245C1220.65,-291.52 1341.96,-278.8 1453.11,-254.156"/>
<polygon fill="midnightblue" stroke="midnightblue" points="1454.16,-257.507 1463.14,-251.892 1452.62,-250.679 1454.16,-257.507"/>
</g>
<!-- Node18 -->
<g id="node41" class="node"><title>Node18</title>
<a xlink:href="_logger_8hpp.html" target="_top" xlink:title="Contains definition of class Logger.">
<polygon fill="none" stroke="black" points="697.5,-232.5 697.5,-253.5 762.5,-253.5 762.5,-232.5 697.5,-232.5"/>
<text text-anchor="middle" x="730" y="-240.5" font-family="Helvetica,sans-Serif" font-size="10.00">Logger.hpp</text>
</a>
</g>
<!-- Node1&#45;&gt;Node18 -->
<g id="edge46" class="edge"><title>Node1&#45;&gt;Node18</title>
<path fill="none" stroke="midnightblue" d="M1058.83,-296.149C995.289,-289.335 879.847,-275.52 772.606,-254.154"/>
<polygon fill="midnightblue" stroke="midnightblue" points="773.083,-250.68 762.588,-252.131 771.697,-257.542 773.083,-250.68"/>
</g>
<!-- Node21 -->
<g id="node48" class="node"><title>Node21</title>
<a xlink:href="_mime_detector_8hpp.html" target="_top" xlink:title="Contains definition of class MimeDetector.">
<polygon fill="none" stroke="black" points="533.5,-232.5 533.5,-253.5 630.5,-253.5 630.5,-232.5 533.5,-232.5"/>
<text text-anchor="middle" x="582" y="-240.5" font-family="Helvetica,sans-Serif" font-size="10.00">MimeDetector.hpp</text>
</a>
</g>
<!-- Node1&#45;&gt;Node21 -->
<g id="edge54" class="edge"><title>Node1&#45;&gt;Node21</title>
<path fill="none" stroke="midnightblue" d="M1058.87,-297.302C974.575,-290.561 794.843,-275.008 644,-254 642.917,-253.849 641.824,-253.693 640.724,-253.533"/>
<polygon fill="midnightblue" stroke="midnightblue" points="641.098,-250.05 630.682,-251.99 640.034,-256.968 641.098,-250.05"/>
</g>
<!-- Node23 -->
<g id="node55" class="node"><title>Node23</title>
<a xlink:href="_response_options_8hpp.html" target="_top" xlink:title="Contains definition of class ResponseOptions.">
<polygon fill="none" stroke="black" points="913.5,-116.5 913.5,-137.5 1026.5,-137.5 1026.5,-116.5 913.5,-116.5"/>
<text text-anchor="middle" x="970" y="-124.5" font-family="Helvetica,sans-Serif" font-size="10.00">ResponseOptions.hpp</text>
</a>
</g>
<!-- Node1&#45;&gt;Node23 -->
<g id="edge64" class="edge"><title>Node1&#45;&gt;Node23</title>
<path fill="none" stroke="midnightblue" d="M1110.79,-290.226C1118.36,-266.642 1132.5,-209.706 1107,-174 1097.43,-160.601 1061.8,-148.612 1029.28,-140.096"/>
<polygon fill="midnightblue" stroke="midnightblue" points="1029.87,-136.636 1019.32,-137.567 1028.15,-143.421 1029.87,-136.636"/>
</g>
<!-- Node24 -->
<g id="node58" class="node"><title>Node24</title>
<a xlink:href="_response_internal_server_error_8hpp.html" target="_top" xlink:title="Contains definition of class ResponseInternalServerError.">
<polygon fill="none" stroke="black" points="1043.5,-116.5 1043.5,-137.5 1204.5,-137.5 1204.5,-116.5 1043.5,-116.5"/>
<text text-anchor="middle" x="1124" y="-124.5" font-family="Helvetica,sans-Serif" font-size="10.00">ResponseInternalServerError.hpp</text>
</a>
</g>
<!-- Node1&#45;&gt;Node24 -->
<g id="edge68" class="edge"><title>Node1&#45;&gt;Node24</title>
<path fill="none" stroke="midnightblue" d="M1117.29,-290.475C1125.22,-281.58 1135.55,-268.07 1140,-254 1150.71,-220.097 1145.81,-209.078 1140,-174 1138.5,-164.912 1135.46,-155.22 1132.43,-147.013"/>
<polygon fill="midnightblue" stroke="midnightblue" points="1135.63,-145.594 1128.72,-137.568 1129.12,-148.155 1135.63,-145.594"/>
</g>
<!-- Node25 -->
<g id="node61" class="node"><title>Node25</title>
<a xlink:href="_response_not_found_8hpp.html" target="_top" xlink:title="Contains definition of class ResponseNotFound.">
<polygon fill="none" stroke="black" points="976,-174.5 976,-195.5 1098,-195.5 1098,-174.5 976,-174.5"/>
<text text-anchor="middle" x="1037" y="-182.5" font-family="Helvetica,sans-Serif" font-size="10.00">ResponseNotFound.hpp</text>
</a>
</g>
<!-- Node1&#45;&gt;Node25 -->
<g id="edge72" class="edge"><title>Node1&#45;&gt;Node25</title>
<path fill="none" stroke="midnightblue" d="M1101.39,-290.063C1094.23,-276.303 1081.31,-252.046 1069,-232 1063.24,-222.609 1056.41,-212.472 1050.55,-204.025"/>
<polygon fill="midnightblue" stroke="midnightblue" points="1053.28,-201.812 1044.67,-195.637 1047.55,-205.833 1053.28,-201.812"/>
</g>
<!-- Node27 -->
<g id="node68" class="node"><title>Node27</title>
<a xlink:href="_response_ok_buffered_8hpp.html" target="_top" xlink:title="Contains definition of class ResponseOkBuffered.">
<polygon fill="none" stroke="black" points="931.5,-232.5 931.5,-253.5 1060.5,-253.5 1060.5,-232.5 931.5,-232.5"/>
<text text-anchor="middle" x="996" y="-240.5" font-family="Helvetica,sans-Serif" font-size="10.00">ResponseOkBuffered.hpp</text>
</a>
</g>
<!-- Node1&#45;&gt;Node27 -->
<g id="edge82" class="edge"><title>Node1&#45;&gt;Node27</title>
<path fill="none" stroke="midnightblue" d="M1086.9,-290.497C1069.72,-281.519 1044.77,-268.484 1025.36,-258.339"/>
<polygon fill="midnightblue" stroke="midnightblue" points="1026.81,-255.15 1016.33,-253.621 1023.57,-261.354 1026.81,-255.15"/>
</g>
<!-- Node29 -->
<g id="node73" class="node"><title>Node29</title>
<a xlink:href="_response_ok_streamed_8hpp.html" target="_top" xlink:title="Contains definition of class ResponseOkStreamed.">
<polygon fill="none" stroke="black" points="780,-232.5 780,-253.5 914,-253.5 914,-232.5 780,-232.5"/>
<text text-anchor="middle" x="847" y="-240.5" font-family="Helvetica,sans-Serif" font-size="10.00">ResponseOkStreamed.hpp</text>
</a>
</g>
<!-- Node1&#45;&gt;Node29 -->
<g id="edge88" class="edge"><title>Node1&#45;&gt;Node29</title>
<path fill="none" stroke="midnightblue" d="M1059.92,-290.497C1016.15,-280.734 950.873,-266.172 904.143,-255.747"/>
<polygon fill="midnightblue" stroke="midnightblue" points="904.695,-252.284 894.172,-253.523 903.17,-259.116 904.695,-252.284"/>
</g>
<!-- Node30 -->
<g id="node77" class="node"><title>Node30</title>
<a xlink:href="_response_not_modified_8hpp.html" target="_top" xlink:title="Contains definition of class ResponseNotModified.">
<polygon fill="none" stroke="black" points="1222,-116.5 1222,-137.5 1354,-137.5 1354,-116.5 1222,-116.5"/>
<text text-anchor="middle" x="1288" y="-124.5" font-family="Helvetica,sans-Serif" font-size="10.00">ResponseNotModified.hpp</text>
</a>
</g>
<!-- Node1&#45;&gt;Node30 -->
<g id="edge94" class="edge"><title>Node1&#45;&gt;Node30</title>
<path fill="none" stroke="midnightblue" d="M1118.29,-290.178C1128.23,-280.655 1143.08,-266.413 1156,-254 1196.56,-215.036 1244.08,-169.294 1269.58,-144.736"/>
<polygon fill="midnightblue" stroke="midnightblue" points="1272.28,-147 1277.05,-137.543 1267.42,-141.958 1272.28,-147"/>
</g>
<!-- Node31 -->
<g id="node80" class="node"><title>Node31</title>
<a xlink:href="_response_moved_permanently_8hpp.html" target="_top" xlink:title="Contains definition of class ResponseMovedPermanently.">
<polygon fill="none" stroke="black" points="290,-174.5 290,-195.5 454,-195.5 454,-174.5 290,-174.5"/>
<text text-anchor="middle" x="372" y="-182.5" font-family="Helvetica,sans-Serif" font-size="10.00">ResponseMovedPermanently.hpp</text>
</a>
</g>
<!-- Node1&#45;&gt;Node31 -->
<g id="edge98" class="edge"><title>Node1&#45;&gt;Node31</title>
<path fill="none" stroke="midnightblue" d="M1058.89,-299.233C938.299,-294.466 625.62,-279.92 525,-254 478.659,-242.062 428.81,-217.045 399.024,-200.642"/>
<polygon fill="midnightblue" stroke="midnightblue" points="400.525,-197.471 390.088,-195.647 397.109,-203.582 400.525,-197.471"/>
</g>
<!-- Node3 -->
<g id="node5" class="node"><title>Node3</title>
<polygon fill="none" stroke="#bfbfbf" points="204.5,-58.5 204.5,-79.5 239.5,-79.5 239.5,-58.5 204.5,-58.5"/>
<text text-anchor="middle" x="222" y="-66.5" font-family="Helvetica,sans-Serif" font-size="10.00">map</text>
</g>
<!-- Node2&#45;&gt;Node3 -->
<g id="edge4" class="edge"><title>Node2&#45;&gt;Node3</title>
<path fill="none" stroke="midnightblue" d="M210.047,-232.276C207.603,-222.816 204.327,-208.611 203,-196 201.977,-186.276 201.933,-183.719 203,-174 204.788,-157.708 207.931,-154.1 211,-138 214.053,-121.988 216.931,-103.775 218.978,-90.0822"/>
<polygon fill="midnightblue" stroke="midnightblue" points="222.499,-90.1937 220.486,-79.7917 215.573,-89.1782 222.499,-90.1937"/>
</g>
<!-- Node4 -->
<g id="node7" class="node"><title>Node4</title>
<polygon fill="none" stroke="#bfbfbf" points="212,-174.5 212,-195.5 272,-195.5 272,-174.5 212,-174.5"/>
<text text-anchor="middle" x="242" y="-182.5" font-family="Helvetica,sans-Serif" font-size="10.00">sys/stat.h</text>
</g>
<!-- Node2&#45;&gt;Node4 -->
<g id="edge6" class="edge"><title>Node2&#45;&gt;Node4</title>
<path fill="none" stroke="midnightblue" d="M218.319,-232.362C222.203,-224.595 227.579,-213.843 232.227,-204.546"/>
<polygon fill="midnightblue" stroke="midnightblue" points="235.373,-206.08 236.715,-195.571 229.112,-202.95 235.373,-206.08"/>
</g>
<!-- Node5 -->
<g id="node9" class="node"><title>Node5</title>
<a xlink:href="_configuration_8hpp.html" target="_top" xlink:title="Contains definition of class Configuration.">
<polygon fill="none" stroke="black" points="63.5,-174.5 63.5,-195.5 156.5,-195.5 156.5,-174.5 63.5,-174.5"/>
<text text-anchor="middle" x="110" y="-182.5" font-family="Helvetica,sans-Serif" font-size="10.00">Configuration.hpp</text>
</a>
</g>
<!-- Node2&#45;&gt;Node5 -->
<g id="edge8" class="edge"><title>Node2&#45;&gt;Node5</title>
<path fill="none" stroke="midnightblue" d="M194.108,-232.362C178.282,-223.45 155.477,-210.609 137.605,-200.545"/>
<polygon fill="midnightblue" stroke="midnightblue" points="139.203,-197.428 128.772,-195.571 135.768,-203.527 139.203,-197.428"/>
</g>
<!-- Node10 -->
<g id="node22" class="node"><title>Node10</title>
<a xlink:href="_response_8hpp.html" target="_top" xlink:title="Contains definition of class Response.">
<polygon fill="none" stroke="black" points="778,-58.5 778,-79.5 858,-79.5 858,-58.5 778,-58.5"/>
<text text-anchor="middle" x="818" y="-66.5" font-family="Helvetica,sans-Serif" font-size="10.00">Response.hpp</text>
</a>
</g>
<!-- Node2&#45;&gt;Node10 -->
<g id="edge24" class="edge"><title>Node2&#45;&gt;Node10</title>
<path fill="none" stroke="midnightblue" d="M253.321,-237.601C303.146,-230.433 390.253,-216.273 463,-196 560.812,-168.741 581.264,-149.838 677,-116 709.97,-104.347 747.547,-91.8599 775.614,-82.688"/>
<polygon fill="midnightblue" stroke="midnightblue" points="776.699,-86.0157 785.122,-79.5888 774.529,-79.3603 776.699,-86.0157"/>
</g>
<!-- Node13 -->
<g id="node28" class="node"><title>Node13</title>
<a xlink:href="_request_8hpp.html" target="_top" xlink:title="Contains definition of class Request.">
<polygon fill="none" stroke="black" points="0,-58.5 0,-79.5 72,-79.5 72,-58.5 0,-58.5"/>
<text text-anchor="middle" x="36" y="-66.5" font-family="Helvetica,sans-Serif" font-size="10.00">Request.hpp</text>
</a>
</g>
<!-- Node2&#45;&gt;Node13 -->
<g id="edge30" class="edge"><title>Node2&#45;&gt;Node13</title>
<path fill="none" stroke="midnightblue" d="M172.79,-236.091C131.272,-228.111 70.4339,-213.773 55,-196 29.3047,-166.411 29.9384,-117.578 32.8585,-89.8795"/>
<polygon fill="midnightblue" stroke="midnightblue" points="36.3585,-90.0983 34.1329,-79.7398 29.4131,-89.2253 36.3585,-90.0983"/>
</g>
<!-- Node6 -->
<g id="node11" class="node"><title>Node6</title>
<polygon fill="none" stroke="#bfbfbf" points="199.5,-0.5 199.5,-21.5 240.5,-21.5 240.5,-0.5 199.5,-0.5"/>
<text text-anchor="middle" x="220" y="-8.5" font-family="Helvetica,sans-Serif" font-size="10.00">string</text>
</g>
<!-- Node5&#45;&gt;Node6 -->
<g id="edge10" class="edge"><title>Node5&#45;&gt;Node6</title>
<path fill="none" stroke="midnightblue" d="M109.377,-174.129C109.011,-160.014 109.898,-134.947 119,-116 136.851,-78.8407 172.911,-46.437 196.758,-27.7953"/>
<polygon fill="midnightblue" stroke="midnightblue" points="199.101,-30.4105 204.935,-21.5667 194.859,-24.842 199.101,-30.4105"/>
</g>
<!-- Node7 -->
<g id="node13" class="node"><title>Node7</title>
<a xlink:href="_ini_config_8hpp.html" target="_top" xlink:title="Contains definition of class IniConfig and IniConfig::Section.">
<polygon fill="none" stroke="black" points="128,-116.5 128,-137.5 202,-137.5 202,-116.5 128,-116.5"/>
<text text-anchor="middle" x="165" y="-124.5" font-family="Helvetica,sans-Serif" font-size="10.00">IniConfig.hpp</text>
</a>
</g>
<!-- Node5&#45;&gt;Node7 -->
<g id="edge12" class="edge"><title>Node5&#45;&gt;Node7</title>
<path fill="none" stroke="midnightblue" d="M120.088,-174.362C127.841,-166.186 138.73,-154.702 147.845,-145.091"/>
<polygon fill="midnightblue" stroke="midnightblue" points="150.635,-147.235 154.976,-137.571 145.555,-142.419 150.635,-147.235"/>
</g>
<!-- Node7&#45;&gt;Node3 -->
<g id="edge16" class="edge"><title>Node7&#45;&gt;Node3</title>
<path fill="none" stroke="midnightblue" d="M175.455,-116.362C183.57,-108.104 195.001,-96.4725 204.504,-86.8029"/>
<polygon fill="midnightblue" stroke="midnightblue" points="207.099,-89.1562 211.612,-79.5707 202.106,-84.2497 207.099,-89.1562"/>
</g>
<!-- Node7&#45;&gt;Node6 -->
<g id="edge14" class="edge"><title>Node7&#45;&gt;Node6</title>
<path fill="none" stroke="midnightblue" d="M169.668,-116.167C175.596,-102.514 186.232,-78.367 196,-58 200.328,-48.9748 205.333,-39.093 209.649,-30.7294"/>
<polygon fill="midnightblue" stroke="midnightblue" points="212.81,-32.238 214.317,-21.751 206.599,-29.009 212.81,-32.238"/>
</g>
<!-- Node8 -->
<g id="node17" class="node"><title>Node8</title>
<a xlink:href="exceptions_8hpp.html" target="_top" xlink:title="Contains definition of Exception, FileIOException, IniParserException, UnknownIniSectionException and...">
<polygon fill="none" stroke="black" points="353.5,-58.5 353.5,-79.5 436.5,-79.5 436.5,-58.5 353.5,-58.5"/>
<text text-anchor="middle" x="395" y="-66.5" font-family="Helvetica,sans-Serif" font-size="10.00">exceptions.hpp</text>
</a>
</g>
<!-- Node7&#45;&gt;Node8 -->
<g id="edge18" class="edge"><title>Node7&#45;&gt;Node8</title>
<path fill="none" stroke="midnightblue" d="M202.209,-117.617C240.462,-107.97 300.334,-92.8722 343.206,-82.0611"/>
<polygon fill="midnightblue" stroke="midnightblue" points="344.328,-85.3877 353.169,-79.5487 342.617,-78.6002 344.328,-85.3877"/>
</g>
<!-- Node8&#45;&gt;Node6 -->
<g id="edge20" class="edge"><title>Node8&#45;&gt;Node6</title>
<path fill="none" stroke="midnightblue" d="M363.309,-58.4966C331.135,-47.8333 281.684,-31.4438 250.096,-20.9747"/>
<polygon fill="midnightblue" stroke="midnightblue" points="251.106,-17.6222 240.513,-17.7985 248.904,-24.2668 251.106,-17.6222"/>
</g>
<!-- Node9 -->
<g id="node20" class="node"><title>Node9</title>
<polygon fill="none" stroke="#bfbfbf" points="531,-0.5 531,-21.5 585,-21.5 585,-0.5 531,-0.5"/>
<text text-anchor="middle" x="558" y="-8.5" font-family="Helvetica,sans-Serif" font-size="10.00">iostream</text>
</g>
<!-- Node8&#45;&gt;Node9 -->
<g id="edge22" class="edge"><title>Node8&#45;&gt;Node9</title>
<path fill="none" stroke="midnightblue" d="M424.518,-58.4966C451.718,-48.818 492.176,-34.4219 521.417,-24.0173"/>
<polygon fill="midnightblue" stroke="midnightblue" points="522.62,-27.3043 530.868,-20.6543 520.273,-20.7093 522.62,-27.3043"/>
</g>
<!-- Node10&#45;&gt;Node11 -->
<g id="edge26" class="edge"><title>Node10&#45;&gt;Node11</title>
<path fill="none" stroke="midnightblue" d="M803.327,-58.3619C791.486,-49.7773 774.615,-37.5459 760.984,-27.6636"/>
<polygon fill="midnightblue" stroke="midnightblue" points="762.731,-24.6067 752.58,-21.5707 758.622,-30.274 762.731,-24.6067"/>
</g>
<!-- Node10&#45;&gt;Node12 -->
<g id="edge28" class="edge"><title>Node10&#45;&gt;Node12</title>
<path fill="none" stroke="midnightblue" d="M830.472,-58.3619C840.345,-49.9408 854.333,-38.0105 865.798,-28.2308"/>
<polygon fill="midnightblue" stroke="midnightblue" points="868.27,-30.7231 873.607,-21.5707 863.727,-25.3972 868.27,-30.7231"/>
</g>
<!-- Node13&#45;&gt;Node6 -->
<g id="edge32" class="edge"><title>Node13&#45;&gt;Node6</title>
<path fill="none" stroke="midnightblue" d="M69.321,-58.4966C103.671,-47.6689 156.752,-30.9367 189.88,-20.4945"/>
<polygon fill="midnightblue" stroke="midnightblue" points="190.992,-23.8137 199.477,-17.4692 188.887,-17.1375 190.992,-23.8137"/>
</g>
<!-- Node18&#45;&gt;Node9 -->
<g id="edge50" class="edge"><title>Node18&#45;&gt;Node9</title>
<path fill="none" stroke="midnightblue" d="M736.739,-232.412C744.866,-218.166 756.129,-192.484 745,-174 727.361,-144.704 704.173,-158.76 677,-138 634.073,-105.204 593.063,-56.2719 572.23,-29.7392"/>
<polygon fill="midnightblue" stroke="midnightblue" points="574.858,-27.4155 565.965,-21.6555 569.325,-31.7036 574.858,-27.4155"/>
</g>
<!-- Node19 -->
<g id="node43" class="node"><title>Node19</title>
<polygon fill="none" stroke="#bfbfbf" points="686,-174.5 686,-195.5 736,-195.5 736,-174.5 686,-174.5"/>
<text text-anchor="middle" x="711" y="-182.5" font-family="Helvetica,sans-Serif" font-size="10.00">fstream</text>
</g>
<!-- Node18&#45;&gt;Node19 -->
<g id="edge48" class="edge"><title>Node18&#45;&gt;Node19</title>
<path fill="none" stroke="midnightblue" d="M726.515,-232.362C724.024,-224.758 720.596,-214.294 717.596,-205.135"/>
<polygon fill="midnightblue" stroke="midnightblue" points="720.902,-203.984 714.463,-195.571 714.25,-206.163 720.902,-203.984"/>
</g>
<!-- Node20 -->
<g id="node46" class="node"><title>Node20</title>
<polygon fill="none" stroke="#bfbfbf" points="791.5,-174.5 791.5,-195.5 848.5,-195.5 848.5,-174.5 791.5,-174.5"/>
<text text-anchor="middle" x="820" y="-182.5" font-family="Helvetica,sans-Serif" font-size="10.00">pthread.h</text>
</g>
<!-- Node18&#45;&gt;Node20 -->
<g id="edge52" class="edge"><title>Node18&#45;&gt;Node20</title>
<path fill="none" stroke="midnightblue" d="M746.507,-232.362C760.082,-223.614 779.533,-211.079 795.015,-201.101"/>
<polygon fill="midnightblue" stroke="midnightblue" points="797.088,-203.93 803.597,-195.571 793.296,-198.046 797.088,-203.93"/>
</g>
<!-- Node21&#45;&gt;Node8 -->
<g id="edge62" class="edge"><title>Node21&#45;&gt;Node8</title>
<path fill="none" stroke="midnightblue" d="M570.584,-232.377C539.49,-203.446 453.041,-123.006 414.259,-86.9202"/>
<polygon fill="midnightblue" stroke="midnightblue" points="416.449,-84.1774 406.744,-79.9277 411.681,-89.3021 416.449,-84.1774"/>
</g>
<!-- Node21&#45;&gt;Node9 -->
<g id="edge58" class="edge"><title>Node21&#45;&gt;Node9</title>
<path fill="none" stroke="midnightblue" d="M580.837,-232.174C579.816,-222.649 578.297,-208.405 577,-196 570.787,-136.568 563.627,-66.3754 560.136,-32.0449"/>
<polygon fill="midnightblue" stroke="midnightblue" points="563.593,-31.4395 559.1,-21.8445 556.629,-32.1471 563.593,-31.4395"/>
</g>
<!-- Node21&#45;&gt;Node19 -->
<g id="edge60" class="edge"><title>Node21&#45;&gt;Node19</title>
<path fill="none" stroke="midnightblue" d="M605.361,-232.497C625.691,-223.356 655.378,-210.008 678.109,-199.788"/>
<polygon fill="midnightblue" stroke="midnightblue" points="679.692,-202.914 687.377,-195.621 676.821,-196.53 679.692,-202.914"/>
</g>
<!-- Node22 -->
<g id="node50" class="node"><title>Node22</title>
<polygon fill="none" stroke="#bfbfbf" points="586,-174.5 586,-195.5 630,-195.5 630,-174.5 586,-174.5"/>
<text text-anchor="middle" x="608" y="-182.5" font-family="Helvetica,sans-Serif" font-size="10.00">vector</text>
</g>
<!-- Node21&#45;&gt;Node22 -->
<g id="edge56" class="edge"><title>Node21&#45;&gt;Node22</title>
<path fill="none" stroke="midnightblue" d="M586.769,-232.362C590.214,-224.677 594.969,-214.069 599.106,-204.84"/>
<polygon fill="midnightblue" stroke="midnightblue" points="602.365,-206.127 603.261,-195.571 595.977,-203.264 602.365,-206.127"/>
</g>
<!-- Node23&#45;&gt;Node10 -->
<g id="edge66" class="edge"><title>Node23&#45;&gt;Node10</title>
<path fill="none" stroke="midnightblue" d="M942.474,-116.497C918.016,-107.164 882.062,-93.4447 855.076,-83.1475"/>
<polygon fill="midnightblue" stroke="midnightblue" points="856.168,-79.8182 845.578,-79.5231 853.673,-86.3582 856.168,-79.8182"/>
</g>
<!-- Node24&#45;&gt;Node10 -->
<g id="edge70" class="edge"><title>Node24&#45;&gt;Node10</title>
<path fill="none" stroke="midnightblue" d="M1068.59,-116.497C1011.51,-105.679 923.35,-88.9683 868.247,-78.524"/>
<polygon fill="midnightblue" stroke="midnightblue" points="868.835,-75.0732 858.358,-76.6496 867.531,-81.9507 868.835,-75.0732"/>
</g>
<!-- Node25&#45;&gt;Node6 -->
<g id="edge80" class="edge"><title>Node25&#45;&gt;Node6</title>
<path fill="none" stroke="midnightblue" d="M1001.91,-174.488C971.611,-165.279 926.732,-151.32 888,-138 861.535,-128.899 856.018,-123.298 829,-116 611.276,-57.1884 340.5,-24.1649 250.591,-14.232"/>
<polygon fill="midnightblue" stroke="midnightblue" points="250.859,-10.7406 240.538,-13.135 250.1,-17.6993 250.859,-10.7406"/>
</g>
<!-- Node25&#45;&gt;Node12 -->
<g id="edge78" class="edge"><title>Node25&#45;&gt;Node12</title>
<path fill="none" stroke="midnightblue" d="M992.792,-174.475C959.056,-165.528 916.478,-151.946 905,-138 880.097,-107.741 880.435,-59.1585 883.092,-31.6822"/>
<polygon fill="midnightblue" stroke="midnightblue" points="886.582,-31.9682 884.262,-21.6305 879.629,-31.1585 886.582,-31.9682"/>
</g>
<!-- Node26 -->
<g id="node63" class="node"><title>Node26</title>
<a xlink:href="_response_with_content_8hpp.html" target="_top" xlink:title="Contains definition of class ResponseWithContent.">
<polygon fill="none" stroke="black" points="686,-116.5 686,-137.5 820,-137.5 820,-116.5 686,-116.5"/>
<text text-anchor="middle" x="753" y="-124.5" font-family="Helvetica,sans-Serif" font-size="10.00">ResponseWithContent.hpp</text>
</a>
</g>
<!-- Node25&#45;&gt;Node26 -->
<g id="edge74" class="edge"><title>Node25&#45;&gt;Node26</title>
<path fill="none" stroke="midnightblue" d="M985.57,-174.497C937.466,-164.673 865.564,-149.988 814.457,-139.551"/>
<polygon fill="midnightblue" stroke="midnightblue" points="815.025,-136.095 804.527,-137.523 813.624,-142.953 815.025,-136.095"/>
</g>
<!-- Node26&#45;&gt;Node10 -->
<g id="edge76" class="edge"><title>Node26&#45;&gt;Node10</title>
<path fill="none" stroke="midnightblue" d="M764.922,-116.362C774.359,-107.941 787.73,-96.0105 798.69,-86.2308"/>
<polygon fill="midnightblue" stroke="midnightblue" points="801.022,-88.8401 806.154,-79.5707 796.362,-83.6171 801.022,-88.8401"/>
</g>
<!-- Node28 -->
<g id="node70" class="node"><title>Node28</title>
<a xlink:href="_response_ok_8hpp.html" target="_top" xlink:title="Contains definition of class ResponseOk.">
<polygon fill="none" stroke="black" points="866,-174.5 866,-195.5 958,-195.5 958,-174.5 866,-174.5"/>
<text text-anchor="middle" x="912" y="-182.5" font-family="Helvetica,sans-Serif" font-size="10.00">ResponseOk.hpp</text>
</a>
</g>
<!-- Node27&#45;&gt;Node28 -->
<g id="edge84" class="edge"><title>Node27&#45;&gt;Node28</title>
<path fill="none" stroke="midnightblue" d="M980.593,-232.362C968.042,-223.696 950.108,-211.313 935.725,-201.382"/>
<polygon fill="midnightblue" stroke="midnightblue" points="937.527,-198.372 927.309,-195.571 933.55,-204.133 937.527,-198.372"/>
</g>
<!-- Node28&#45;&gt;Node26 -->
<g id="edge86" class="edge"><title>Node28&#45;&gt;Node26</title>
<path fill="none" stroke="midnightblue" d="M883.206,-174.497C857.509,-165.123 819.682,-151.324 791.413,-141.012"/>
<polygon fill="midnightblue" stroke="midnightblue" points="792.442,-137.662 781.848,-137.523 790.043,-144.238 792.442,-137.662"/>
</g>
<!-- Node29&#45;&gt;Node19 -->
<g id="edge92" class="edge"><title>Node29&#45;&gt;Node19</title>
<path fill="none" stroke="midnightblue" d="M822.371,-232.497C800.843,-223.315 769.36,-209.889 745.355,-199.652"/>
<polygon fill="midnightblue" stroke="midnightblue" points="746.476,-196.325 735.905,-195.621 743.73,-202.764 746.476,-196.325"/>
</g>
<!-- Node29&#45;&gt;Node28 -->
<g id="edge90" class="edge"><title>Node29&#45;&gt;Node28</title>
<path fill="none" stroke="midnightblue" d="M858.922,-232.362C868.359,-223.941 881.73,-212.011 892.69,-202.231"/>
<polygon fill="midnightblue" stroke="midnightblue" points="895.022,-204.84 900.154,-195.571 890.362,-199.617 895.022,-204.84"/>
</g>
<!-- Node30&#45;&gt;Node10 -->
<g id="edge96" class="edge"><title>Node30&#45;&gt;Node10</title>
<path fill="none" stroke="midnightblue" d="M1221.76,-117.185C1218.8,-116.778 1215.87,-116.381 1213,-116 1089.26,-99.5672 943.344,-82.9094 868.251,-74.5361"/>
<polygon fill="midnightblue" stroke="midnightblue" points="868.461,-71.0379 858.135,-73.4105 867.687,-77.995 868.461,-71.0379"/>
</g>
<!-- Node31&#45;&gt;Node6 -->
<g id="edge102" class="edge"><title>Node31&#45;&gt;Node6</title>
<path fill="none" stroke="midnightblue" d="M362.721,-174.377C337.658,-145.688 268.35,-66.3484 236.454,-29.8354"/>
<polygon fill="midnightblue" stroke="midnightblue" points="238.761,-27.1562 229.546,-21.9277 233.489,-31.7615 238.761,-27.1562"/>
</g>
<!-- Node31&#45;&gt;Node26 -->
<g id="edge100" class="edge"><title>Node31&#45;&gt;Node26</title>
<path fill="none" stroke="midnightblue" d="M440.996,-174.497C507.218,-164.416 607.06,-149.217 675.876,-138.741"/>
<polygon fill="midnightblue" stroke="midnightblue" points="676.437,-142.196 685.796,-137.231 675.383,-135.275 676.437,-142.196"/>
</g>
</g>
</svg>
