<?xml version="1.0" encoding="UTF-8" standalone="no"?>
<!DOCTYPE svg PUBLIC "-//W3C//DTD SVG 1.1//EN"
 "http://www.w3.org/Graphics/SVG/1.1/DTD/svg11.dtd">
<!-- Generated by graphviz version 2.26.3 (20100126.1600)
 -->
<!-- Title: G Pages: 1 -->
<svg width="108pt" height="146pt"
 viewBox="0.00 0.00 108.00 146.00" xmlns="http://www.w3.org/2000/svg" xmlns:xlink="http://www.w3.org/1999/xlink">
<g id="graph1" class="graph" transform="scale(1 1) rotate(0) translate(4 142)">
<title>G</title>
<!-- Node1 -->
<g id="node1" class="node"><title>Node1</title>
<polygon fill="#bfbfbf" stroke="black" points="1,-116.5 1,-137.5 97,-137.5 97,-116.5 1,-116.5"/>
<text text-anchor="middle" x="49" y="-124.5" font-family="Helvetica,sans-Serif" font-size="10.00">src/Response.cpp</text>
</g>
<!-- Node2 -->
<g id="node3" class="node"><title>Node2</title>
<a xlink:href="_response_8hpp.html" target="_top" xlink:title="Contains definition of class Response.">
<polygon fill="none" stroke="black" points="9,-58.5 9,-79.5 89,-79.5 89,-58.5 9,-58.5"/>
<text text-anchor="middle" x="49" y="-66.5" font-family="Helvetica,sans-Serif" font-size="10.00">Response.hpp</text>
</a>
</g>
<!-- Node1&#45;&gt;Node2 -->
<g id="edge2" class="edge"><title>Node1&#45;&gt;Node2</title>
<path fill="none" stroke="midnightblue" d="M49,-116.362C49,-108.922 49,-98.7427 49,-89.7276"/>
<polygon fill="midnightblue" stroke="midnightblue" points="52.5001,-89.5706 49,-79.5707 45.5001,-89.5707 52.5001,-89.5706"/>
</g>
<!-- Node3 -->
<g id="node5" class="node"><title>Node3</title>
<polygon fill="none" stroke="#bfbfbf" points="-0.5,-0.5 -0.5,-21.5 40.5,-21.5 40.5,-0.5 -0.5,-0.5"/>
<text text-anchor="middle" x="20" y="-8.5" font-family="Helvetica,sans-Serif" font-size="10.00">ctime</text>
</g>
<!-- Node2&#45;&gt;Node3 -->
<g id="edge4" class="edge"><title>Node2&#45;&gt;Node3</title>
<path fill="none" stroke="midnightblue" d="M43.681,-58.3619C39.7974,-50.5949 34.4213,-39.8426 29.7729,-30.5458"/>
<polygon fill="midnightblue" stroke="midnightblue" points="32.888,-28.9497 25.2853,-21.5707 26.627,-32.0802 32.888,-28.9497"/>
</g>
<!-- Node4 -->
<g id="node7" class="node"><title>Node4</title>
<polygon fill="none" stroke="#bfbfbf" points="57.5,-0.5 57.5,-21.5 100.5,-21.5 100.5,-0.5 57.5,-0.5"/>
<text text-anchor="middle" x="79" y="-8.5" font-family="Helvetica,sans-Serif" font-size="10.00">cstdio</text>
</g>
<!-- Node2&#45;&gt;Node4 -->
<g id="edge6" class="edge"><title>Node2&#45;&gt;Node4</title>
<path fill="none" stroke="midnightblue" d="M54.5025,-58.3619C58.5199,-50.5949 64.0814,-39.8426 68.8901,-30.5458"/>
<polygon fill="midnightblue" stroke="midnightblue" points="72.0469,-32.0608 73.5324,-21.5707 65.8294,-28.8448 72.0469,-32.0608"/>
</g>
</g>
</svg>
