<?xml version="1.0" encoding="UTF-8" standalone="no"?>
<!DOCTYPE svg PUBLIC "-//W3C//DTD SVG 1.1//EN"
 "http://www.w3.org/Graphics/SVG/1.1/DTD/svg11.dtd">
<!-- Generated by graphviz version 2.26.3 (20100126.1600)
 -->
<!-- Title: G Pages: 1 -->
<svg width="272pt" height="88pt"
 viewBox="0.00 0.00 272.00 88.00" xmlns="http://www.w3.org/2000/svg" xmlns:xlink="http://www.w3.org/1999/xlink">
<g id="graph1" class="graph" transform="scale(1 1) rotate(0) translate(4 84)">
<title>G</title>
<!-- Node1 -->
<g id="node1" class="node"><title>Node1</title>
<polygon fill="#bfbfbf" stroke="black" points="42.5,-58.5 42.5,-79.5 193.5,-79.5 193.5,-58.5 42.5,-58.5"/>
<text text-anchor="middle" x="118" y="-66.5" font-family="Helvetica,sans-Serif" font-size="10.00">src/ResponseOkStreamed.hpp</text>
</g>
<!-- Node2 -->
<g id="node3" class="node"><title>Node2</title>
<a xlink:href="_file_cache_8cpp.html" target="_top" xlink:title="Contains implementation of class FileCache.">
<polygon fill="none" stroke="black" points="0,-0.5 0,-21.5 96,-21.5 96,-0.5 0,-0.5"/>
<text text-anchor="middle" x="48" y="-8.5" font-family="Helvetica,sans-Serif" font-size="10.00">src/FileCache.cpp</text>
</a>
</g>
<!-- Node1&#45;&gt;Node2 -->
<g id="edge2" class="edge"><title>Node1&#45;&gt;Node2</title>
<path fill="none" stroke="midnightblue" d="M97.453,-51.9753C85.5725,-42.1315 70.9969,-30.0545 60.7577,-21.5707"/>
<polygon fill="midnightblue" stroke="midnightblue" points="95.2276,-54.6768 105.161,-58.3619 99.6938,-49.2866 95.2276,-54.6768"/>
</g>
<!-- Node3 -->
<g id="node5" class="node"><title>Node3</title>
<a xlink:href="_response_ok_streamed_8cpp.html" target="_top" xlink:title="Contains implementation of class ResponseOkStreamed.">
<polygon fill="none" stroke="black" points="113.5,-0.5 113.5,-21.5 264.5,-21.5 264.5,-0.5 113.5,-0.5"/>
<text text-anchor="middle" x="189" y="-8.5" font-family="Helvetica,sans-Serif" font-size="10.00">src/ResponseOkStreamed.cpp</text>
</a>
</g>
<!-- Node1&#45;&gt;Node3 -->
<g id="edge4" class="edge"><title>Node1&#45;&gt;Node3</title>
<path fill="none" stroke="midnightblue" d="M138.841,-51.9753C150.891,-42.1315 165.675,-30.0545 176.06,-21.5707"/>
<polygon fill="midnightblue" stroke="midnightblue" points="136.553,-49.3249 131.022,-58.3619 140.981,-54.746 136.553,-49.3249"/>
</g>
</g>
</svg>
