<?xml version="1.0" encoding="UTF-8" standalone="no"?>
<!DOCTYPE svg PUBLIC "-//W3C//DTD SVG 1.1//EN"
 "http://www.w3.org/Graphics/SVG/1.1/DTD/svg11.dtd">
<!-- Generated by graphviz version 2.26.3 (20100126.1600)
 -->
<!-- Title: G Pages: 1 -->
<svg width="276pt" height="88pt"
 viewBox="0.00 0.00 276.00 88.00" xmlns="http://www.w3.org/2000/svg" xmlns:xlink="http://www.w3.org/1999/xlink">
<g id="graph1" class="graph" transform="scale(1 1) rotate(0) translate(4 84)">
<title>G</title>
<!-- Node1 -->
<g id="node1" class="node"><title>Node1</title>
<polygon fill="#bfbfbf" stroke="black" points="71,-58.5 71,-79.5 221,-79.5 221,-58.5 71,-58.5"/>
<text text-anchor="middle" x="146" y="-66.5" font-family="Helvetica,sans-Serif" font-size="10.00">src/ResponseBadRequest.hpp</text>
</g>
<!-- Node2 -->
<g id="node3" class="node"><title>Node2</title>
<a xlink:href="_response_bad_request_8cpp.html" target="_top" xlink:title="Contains implementation of class ResponseBadRequest.">
<polygon fill="none" stroke="black" points="0,-0.5 0,-21.5 150,-21.5 150,-0.5 0,-0.5"/>
<text text-anchor="middle" x="75" y="-8.5" font-family="Helvetica,sans-Serif" font-size="10.00">src/ResponseBadRequest.cpp</text>
</a>
</g>
<!-- Node1&#45;&gt;Node2 -->
<g id="edge2" class="edge"><title>Node1&#45;&gt;Node2</title>
<path fill="none" stroke="midnightblue" d="M125.159,-51.9753C113.109,-42.1315 98.3254,-30.0545 87.9399,-21.5707"/>
<polygon fill="midnightblue" stroke="midnightblue" points="123.019,-54.746 132.978,-58.3619 127.447,-49.3249 123.019,-54.746"/>
</g>
<!-- Node3 -->
<g id="node5" class="node"><title>Node3</title>
<a xlink:href="_thread_pool_8cpp.html" target="_top" xlink:title="Contains implementation of class ThreadPool and structure ThreadPool::Thread.">
<polygon fill="none" stroke="black" points="167.5,-0.5 167.5,-21.5 268.5,-21.5 268.5,-0.5 167.5,-0.5"/>
<text text-anchor="middle" x="218" y="-8.5" font-family="Helvetica,sans-Serif" font-size="10.00">src/ThreadPool.cpp</text>
</a>
</g>
<!-- Node1&#45;&gt;Node3 -->
<g id="edge4" class="edge"><title>Node1&#45;&gt;Node3</title>
<path fill="none" stroke="midnightblue" d="M167.134,-51.9753C179.354,-42.1315 194.346,-30.0545 204.878,-21.5707"/>
<polygon fill="midnightblue" stroke="midnightblue" points="164.798,-49.3629 159.206,-58.3619 169.189,-54.8142 164.798,-49.3629"/>
</g>
</g>
</svg>
