<?xml version="1.0" encoding="UTF-8" standalone="no"?>
<!DOCTYPE svg PUBLIC "-//W3C//DTD SVG 1.1//EN"
 "http://www.w3.org/Graphics/SVG/1.1/DTD/svg11.dtd">
<!-- Generated by graphviz version 2.26.3 (20100126.1600)
 -->
<!-- Title: G Pages: 1 -->
<svg width="1104pt" height="378pt"
 viewBox="0.00 0.00 1104.00 378.00" xmlns="http://www.w3.org/2000/svg" xmlns:xlink="http://www.w3.org/1999/xlink">
<g id="graph1" class="graph" transform="scale(1 1) rotate(0) translate(4 374)">
<title>G</title>
<!-- Node1 -->
<g id="node1" class="node"><title>Node1</title>
<polygon fill="#bfbfbf" stroke="black" points="503.5,-348.5 503.5,-369.5 604.5,-369.5 604.5,-348.5 503.5,-348.5"/>
<text text-anchor="middle" x="554" y="-356.5" font-family="Helvetica,sans-Serif" font-size="10.00">src/ThreadPool.cpp</text>
</g>
<!-- Node2 -->
<g id="node3" class="node"><title>Node2</title>
<a xlink:href="_thread_pool_8hpp.html" target="_top" xlink:title="Contains definition of class ThreadPool and structure ThreadPool::Thread.">
<polygon fill="none" stroke="black" points="195.5,-290.5 195.5,-311.5 280.5,-311.5 280.5,-290.5 195.5,-290.5"/>
<text text-anchor="middle" x="238" y="-298.5" font-family="Helvetica,sans-Serif" font-size="10.00">ThreadPool.hpp</text>
</a>
</g>
<!-- Node1&#45;&gt;Node2 -->
<g id="edge2" class="edge"><title>Node1&#45;&gt;Node2</title>
<path fill="none" stroke="midnightblue" d="M503.229,-349.681C444.846,-338.965 349.479,-321.461 290.413,-310.62"/>
<polygon fill="midnightblue" stroke="midnightblue" points="291.008,-307.171 280.54,-308.808 289.744,-314.056 291.008,-307.171"/>
</g>
<!-- Node15 -->
<g id="node32" class="node"><title>Node15</title>
<polygon fill="none" stroke="#bfbfbf" points="251,-174.5 251,-195.5 311,-195.5 311,-174.5 251,-174.5"/>
<text text-anchor="middle" x="281" y="-182.5" font-family="Helvetica,sans-Serif" font-size="10.00">sys/stat.h</text>
</g>
<!-- Node1&#45;&gt;Node15 -->
<g id="edge48" class="edge"><title>Node1&#45;&gt;Node15</title>
<path fill="none" stroke="midnightblue" d="M504.177,-348.436C483.408,-341.503 460.928,-330.212 447,-312 425.159,-283.441 458.483,-259.225 435,-232 420.104,-214.73 361.632,-200.381 321.186,-192.246"/>
<polygon fill="midnightblue" stroke="midnightblue" points="321.815,-188.803 311.329,-190.313 320.469,-195.672 321.815,-188.803"/>
</g>
<!-- Node19 -->
<g id="node44" class="node"><title>Node19</title>
<polygon fill="none" stroke="#bfbfbf" points="455.5,-290.5 455.5,-311.5 504.5,-311.5 504.5,-290.5 455.5,-290.5"/>
<text text-anchor="middle" x="480" y="-298.5" font-family="Helvetica,sans-Serif" font-size="10.00">dirent.h</text>
</g>
<!-- Node1&#45;&gt;Node19 -->
<g id="edge50" class="edge"><title>Node1&#45;&gt;Node19</title>
<path fill="none" stroke="midnightblue" d="M540.427,-348.362C529.579,-339.859 514.166,-327.779 501.621,-317.947"/>
<polygon fill="midnightblue" stroke="midnightblue" points="503.516,-314.985 493.487,-311.571 499.198,-320.494 503.516,-314.985"/>
</g>
<!-- Node20 -->
<g id="node46" class="node"><title>Node20</title>
<a xlink:href="_logger_8hpp.html" target="_top" xlink:title="Contains definition of class Logger.">
<polygon fill="none" stroke="black" points="521.5,-290.5 521.5,-311.5 586.5,-311.5 586.5,-290.5 521.5,-290.5"/>
<text text-anchor="middle" x="554" y="-298.5" font-family="Helvetica,sans-Serif" font-size="10.00">Logger.hpp</text>
</a>
</g>
<!-- Node1&#45;&gt;Node20 -->
<g id="edge52" class="edge"><title>Node1&#45;&gt;Node20</title>
<path fill="none" stroke="midnightblue" d="M554,-348.362C554,-340.922 554,-330.743 554,-321.728"/>
<polygon fill="midnightblue" stroke="midnightblue" points="557.5,-321.571 554,-311.571 550.5,-321.571 557.5,-321.571"/>
</g>
<!-- Node22 -->
<g id="node52" class="node"><title>Node22</title>
<a xlink:href="_response_internal_server_error_8hpp.html" target="_top" xlink:title="Contains definition of class ResponseInternalServerError.">
<polygon fill="none" stroke="black" points="603.5,-290.5 603.5,-311.5 764.5,-311.5 764.5,-290.5 603.5,-290.5"/>
<text text-anchor="middle" x="684" y="-298.5" font-family="Helvetica,sans-Serif" font-size="10.00">ResponseInternalServerError.hpp</text>
</a>
</g>
<!-- Node1&#45;&gt;Node22 -->
<g id="edge60" class="edge"><title>Node1&#45;&gt;Node22</title>
<path fill="none" stroke="midnightblue" d="M577.542,-348.497C598.029,-339.356 627.947,-326.008 650.854,-315.788"/>
<polygon fill="midnightblue" stroke="midnightblue" points="652.488,-318.892 660.194,-311.621 649.635,-312.499 652.488,-318.892"/>
</g>
<!-- Node23 -->
<g id="node55" class="node"><title>Node23</title>
<a xlink:href="_response_bad_request_8hpp.html" target="_top" xlink:title="Contains definition of class ResponseBadRequest.">
<polygon fill="none" stroke="black" points="782,-290.5 782,-311.5 916,-311.5 916,-290.5 782,-290.5"/>
<text text-anchor="middle" x="849" y="-298.5" font-family="Helvetica,sans-Serif" font-size="10.00">ResponseBadRequest.hpp</text>
</a>
</g>
<!-- Node1&#45;&gt;Node23 -->
<g id="edge64" class="edge"><title>Node1&#45;&gt;Node23</title>
<path fill="none" stroke="midnightblue" d="M604.712,-349.029C654.804,-339.181 731.561,-324.09 785.641,-313.457"/>
<polygon fill="midnightblue" stroke="midnightblue" points="786.327,-316.889 795.464,-311.526 784.977,-310.021 786.327,-316.889"/>
</g>
<!-- Node24 -->
<g id="node58" class="node"><title>Node24</title>
<a xlink:href="_response_method_not_allowed_8hpp.html" target="_top" xlink:title="Contains definition of class ResponseMethodNotAllowed.">
<polygon fill="none" stroke="black" points="934,-290.5 934,-311.5 1096,-311.5 1096,-290.5 934,-290.5"/>
<text text-anchor="middle" x="1015" y="-298.5" font-family="Helvetica,sans-Serif" font-size="10.00">ResponseMethodNotAllowed.hpp</text>
</a>
</g>
<!-- Node1&#45;&gt;Node24 -->
<g id="edge68" class="edge"><title>Node1&#45;&gt;Node24</title>
<path fill="none" stroke="midnightblue" d="M604.654,-352.627C681.348,-342.978 828.108,-324.514 923.736,-312.482"/>
<polygon fill="midnightblue" stroke="midnightblue" points="924.206,-315.951 933.691,-311.23 923.332,-309.006 924.206,-315.951"/>
</g>
<!-- Node3 -->
<g id="node5" class="node"><title>Node3</title>
<polygon fill="none" stroke="#bfbfbf" points="300,-232.5 300,-253.5 352,-253.5 352,-232.5 300,-232.5"/>
<text text-anchor="middle" x="326" y="-240.5" font-family="Helvetica,sans-Serif" font-size="10.00">sstream</text>
</g>
<!-- Node2&#45;&gt;Node3 -->
<g id="edge4" class="edge"><title>Node2&#45;&gt;Node3</title>
<path fill="none" stroke="midnightblue" d="M254.141,-290.362C267.414,-281.614 286.432,-269.079 301.57,-259.101"/>
<polygon fill="midnightblue" stroke="midnightblue" points="303.538,-261.996 309.962,-253.571 299.686,-256.151 303.538,-261.996"/>
</g>
<!-- Node4 -->
<g id="node7" class="node"><title>Node4</title>
<polygon fill="none" stroke="#bfbfbf" points="369.5,-232.5 369.5,-253.5 426.5,-253.5 426.5,-232.5 369.5,-232.5"/>
<text text-anchor="middle" x="398" y="-240.5" font-family="Helvetica,sans-Serif" font-size="10.00">pthread.h</text>
</g>
<!-- Node2&#45;&gt;Node4 -->
<g id="edge6" class="edge"><title>Node2&#45;&gt;Node4</title>
<path fill="none" stroke="midnightblue" d="M266.975,-290.497C292.914,-281.094 331.136,-267.238 359.611,-256.916"/>
<polygon fill="midnightblue" stroke="midnightblue" points="361.032,-260.124 369.241,-253.425 358.647,-253.543 361.032,-260.124"/>
</g>
<!-- Node5 -->
<g id="node9" class="node"><title>Node5</title>
<polygon fill="none" stroke="#bfbfbf" points="0,-232.5 0,-253.5 44,-253.5 44,-232.5 0,-232.5"/>
<text text-anchor="middle" x="22" y="-240.5" font-family="Helvetica,sans-Serif" font-size="10.00">cerrno</text>
</g>
<!-- Node2&#45;&gt;Node5 -->
<g id="edge8" class="edge"><title>Node2&#45;&gt;Node5</title>
<path fill="none" stroke="midnightblue" d="M195.445,-291.367C159.884,-283.054 107.683,-270.242 53.9596,-254.118"/>
<polygon fill="midnightblue" stroke="midnightblue" points="54.855,-250.733 44.2695,-251.179 52.8227,-257.431 54.855,-250.733"/>
</g>
<!-- Node6 -->
<g id="node11" class="node"><title>Node6</title>
<polygon fill="none" stroke="#bfbfbf" points="62,-232.5 62,-253.5 108,-253.5 108,-232.5 62,-232.5"/>
<text text-anchor="middle" x="85" y="-240.5" font-family="Helvetica,sans-Serif" font-size="10.00">cstring</text>
</g>
<!-- Node2&#45;&gt;Node6 -->
<g id="edge10" class="edge"><title>Node2&#45;&gt;Node6</title>
<path fill="none" stroke="midnightblue" d="M210.293,-290.497C184.216,-280.611 145.159,-265.805 117.596,-255.357"/>
<polygon fill="midnightblue" stroke="midnightblue" points="118.598,-251.993 108.007,-251.721 116.117,-258.539 118.598,-251.993"/>
</g>
<!-- Node7 -->
<g id="node13" class="node"><title>Node7</title>
<polygon fill="none" stroke="#bfbfbf" points="598.5,-116.5 598.5,-137.5 641.5,-137.5 641.5,-116.5 598.5,-116.5"/>
<text text-anchor="middle" x="620" y="-124.5" font-family="Helvetica,sans-Serif" font-size="10.00">cstdio</text>
</g>
<!-- Node2&#45;&gt;Node7 -->
<g id="edge12" class="edge"><title>Node2&#45;&gt;Node7</title>
<path fill="none" stroke="midnightblue" d="M243.357,-290.499C251.587,-275.392 268.751,-247.629 291,-232 386.308,-165.051 526.418,-139.246 588.454,-130.694"/>
<polygon fill="midnightblue" stroke="midnightblue" points="588.958,-134.158 598.413,-129.378 588.041,-127.218 588.958,-134.158"/>
</g>
<!-- Node8 -->
<g id="node15" class="node"><title>Node8</title>
<a xlink:href="_configuration_8hpp.html" target="_top" xlink:title="Contains definition of class Configuration.">
<polygon fill="none" stroke="black" points="64.5,-174.5 64.5,-195.5 157.5,-195.5 157.5,-174.5 64.5,-174.5"/>
<text text-anchor="middle" x="111" y="-182.5" font-family="Helvetica,sans-Serif" font-size="10.00">Configuration.hpp</text>
</a>
</g>
<!-- Node2&#45;&gt;Node8 -->
<g id="edge14" class="edge"><title>Node2&#45;&gt;Node8</title>
<path fill="none" stroke="midnightblue" d="M212.299,-290.45C194.732,-282.339 171.697,-269.844 155,-254 140.262,-240.015 128.26,-220.124 120.536,-205.289"/>
<polygon fill="midnightblue" stroke="midnightblue" points="123.482,-203.352 115.891,-195.961 117.216,-206.473 123.482,-203.352"/>
</g>
<!-- Node14 -->
<g id="node29" class="node"><title>Node14</title>
<a xlink:href="_file_cache_8hpp.html" target="_top" xlink:title="Contains definition of class FileCache.">
<polygon fill="none" stroke="black" points="164,-232.5 164,-253.5 244,-253.5 244,-232.5 164,-232.5"/>
<text text-anchor="middle" x="204" y="-240.5" font-family="Helvetica,sans-Serif" font-size="10.00">FileCache.hpp</text>
</a>
</g>
<!-- Node2&#45;&gt;Node14 -->
<g id="edge30" class="edge"><title>Node2&#45;&gt;Node14</title>
<path fill="none" stroke="midnightblue" d="M231.764,-290.362C227.163,-282.513 220.775,-271.616 215.286,-262.253"/>
<polygon fill="midnightblue" stroke="midnightblue" points="218.273,-260.428 210.197,-253.571 212.234,-263.968 218.273,-260.428"/>
</g>
<!-- Node9 -->
<g id="node17" class="node"><title>Node9</title>
<polygon fill="none" stroke="#bfbfbf" points="104.5,-0.5 104.5,-21.5 145.5,-21.5 145.5,-0.5 104.5,-0.5"/>
<text text-anchor="middle" x="125" y="-8.5" font-family="Helvetica,sans-Serif" font-size="10.00">string</text>
</g>
<!-- Node8&#45;&gt;Node9 -->
<g id="edge16" class="edge"><title>Node8&#45;&gt;Node9</title>
<path fill="none" stroke="midnightblue" d="M99.1254,-174.36C90.2992,-165.599 78.9626,-152.327 74,-138 70.7996,-128.761 71.8083,-125.529 74,-116 81.3334,-84.1169 99.6984,-50.6908 112.266,-30.3463"/>
<polygon fill="midnightblue" stroke="midnightblue" points="115.335,-32.0424 117.734,-21.7228 109.423,-28.294 115.335,-32.0424"/>
</g>
<!-- Node10 -->
<g id="node19" class="node"><title>Node10</title>
<a xlink:href="_ini_config_8hpp.html" target="_top" xlink:title="Contains definition of class IniConfig and IniConfig::Section.">
<polygon fill="none" stroke="black" points="83,-116.5 83,-137.5 157,-137.5 157,-116.5 83,-116.5"/>
<text text-anchor="middle" x="120" y="-124.5" font-family="Helvetica,sans-Serif" font-size="10.00">IniConfig.hpp</text>
</a>
</g>
<!-- Node8&#45;&gt;Node10 -->
<g id="edge18" class="edge"><title>Node8&#45;&gt;Node10</title>
<path fill="none" stroke="midnightblue" d="M112.651,-174.362C113.805,-166.922 115.385,-156.743 116.784,-147.728"/>
<polygon fill="midnightblue" stroke="midnightblue" points="120.285,-147.989 118.36,-137.571 113.368,-146.916 120.285,-147.989"/>
</g>
<!-- Node10&#45;&gt;Node9 -->
<g id="edge20" class="edge"><title>Node10&#45;&gt;Node9</title>
<path fill="none" stroke="midnightblue" d="M117.08,-116.227C113.78,-102.636 109.21,-78.5537 112,-58 113.204,-49.1337 115.629,-39.5776 118.062,-31.4123"/>
<polygon fill="midnightblue" stroke="midnightblue" points="121.47,-32.245 121.164,-21.6546 114.799,-30.1247 121.47,-32.245"/>
</g>
<!-- Node11 -->
<g id="node22" class="node"><title>Node11</title>
<polygon fill="none" stroke="#bfbfbf" points="310.5,-58.5 310.5,-79.5 345.5,-79.5 345.5,-58.5 310.5,-58.5"/>
<text text-anchor="middle" x="328" y="-66.5" font-family="Helvetica,sans-Serif" font-size="10.00">map</text>
</g>
<!-- Node10&#45;&gt;Node11 -->
<g id="edge22" class="edge"><title>Node10&#45;&gt;Node11</title>
<path fill="none" stroke="midnightblue" d="M157.07,-119.116C192.079,-111.299 246.138,-98.276 300.45,-80.2305"/>
<polygon fill="midnightblue" stroke="midnightblue" points="301.878,-83.4425 310.231,-76.9258 299.637,-76.8108 301.878,-83.4425"/>
</g>
<!-- Node12 -->
<g id="node24" class="node"><title>Node12</title>
<a xlink:href="exceptions_8hpp.html" target="_top" xlink:title="Contains definition of Exception, FileIOException, IniParserException, UnknownIniSectionException and...">
<polygon fill="none" stroke="black" points="210.5,-58.5 210.5,-79.5 293.5,-79.5 293.5,-58.5 210.5,-58.5"/>
<text text-anchor="middle" x="252" y="-66.5" font-family="Helvetica,sans-Serif" font-size="10.00">exceptions.hpp</text>
</a>
</g>
<!-- Node10&#45;&gt;Node12 -->
<g id="edge24" class="edge"><title>Node10&#45;&gt;Node12</title>
<path fill="none" stroke="midnightblue" d="M143.904,-116.497C164.8,-107.315 195.356,-93.8889 218.655,-83.6516"/>
<polygon fill="midnightblue" stroke="midnightblue" points="220.08,-86.8483 227.828,-79.6212 217.264,-80.4397 220.08,-86.8483"/>
</g>
<!-- Node12&#45;&gt;Node9 -->
<g id="edge26" class="edge"><title>Node12&#45;&gt;Node9</title>
<path fill="none" stroke="midnightblue" d="M229.001,-58.4966C208.236,-49.0134 177.554,-35.0011 154.893,-24.6521"/>
<polygon fill="midnightblue" stroke="midnightblue" points="156.275,-21.4355 145.725,-20.465 153.367,-27.803 156.275,-21.4355"/>
</g>
<!-- Node13 -->
<g id="node27" class="node"><title>Node13</title>
<polygon fill="none" stroke="#bfbfbf" points="379,-0.5 379,-21.5 433,-21.5 433,-0.5 379,-0.5"/>
<text text-anchor="middle" x="406" y="-8.5" font-family="Helvetica,sans-Serif" font-size="10.00">iostream</text>
</g>
<!-- Node12&#45;&gt;Node13 -->
<g id="edge28" class="edge"><title>Node12&#45;&gt;Node13</title>
<path fill="none" stroke="midnightblue" d="M279.888,-58.4966C304.9,-49.0766 341.777,-35.1878 369.2,-24.8597"/>
<polygon fill="midnightblue" stroke="midnightblue" points="370.712,-28.0305 378.836,-21.2305 368.244,-21.4797 370.712,-28.0305"/>
</g>
<!-- Node14&#45;&gt;Node8 -->
<g id="edge36" class="edge"><title>Node14&#45;&gt;Node8</title>
<path fill="none" stroke="midnightblue" d="M186.942,-232.362C172.915,-223.614 152.816,-211.079 136.818,-201.101"/>
<polygon fill="midnightblue" stroke="midnightblue" points="138.287,-197.893 127.949,-195.571 134.582,-203.832 138.287,-197.893"/>
</g>
<!-- Node14&#45;&gt;Node11 -->
<g id="edge32" class="edge"><title>Node14&#45;&gt;Node11</title>
<path fill="none" stroke="midnightblue" d="M209.094,-232.363C215.903,-218.502 228.666,-193.709 242,-174 263.817,-141.753 293.299,-107.39 311.461,-87.077"/>
<polygon fill="midnightblue" stroke="midnightblue" points="314.176,-89.2933 318.274,-79.5234 308.978,-84.6049 314.176,-89.2933"/>
</g>
<!-- Node14&#45;&gt;Node15 -->
<g id="edge34" class="edge"><title>Node14&#45;&gt;Node15</title>
<path fill="none" stroke="midnightblue" d="M218.123,-232.362C229.52,-223.777 245.758,-211.546 258.878,-201.664"/>
<polygon fill="midnightblue" stroke="midnightblue" points="261.085,-204.383 266.967,-195.571 256.873,-198.792 261.085,-204.383"/>
</g>
<!-- Node16 -->
<g id="node35" class="node"><title>Node16</title>
<a xlink:href="_response_8hpp.html" target="_top" xlink:title="Contains definition of class Response.">
<polygon fill="none" stroke="black" points="644,-174.5 644,-195.5 724,-195.5 724,-174.5 644,-174.5"/>
<text text-anchor="middle" x="684" y="-182.5" font-family="Helvetica,sans-Serif" font-size="10.00">Response.hpp</text>
</a>
</g>
<!-- Node14&#45;&gt;Node16 -->
<g id="edge38" class="edge"><title>Node14&#45;&gt;Node16</title>
<path fill="none" stroke="midnightblue" d="M244.275,-237.85C258.977,-235.986 275.738,-233.877 291,-232 414.11,-216.856 559.002,-199.701 633.749,-190.9"/>
<polygon fill="midnightblue" stroke="midnightblue" points="634.298,-194.359 643.821,-189.715 633.48,-187.407 634.298,-194.359"/>
</g>
<!-- Node18 -->
<g id="node40" class="node"><title>Node18</title>
<a xlink:href="_request_8hpp.html" target="_top" xlink:title="Contains definition of class Request.">
<polygon fill="none" stroke="black" points="121,-58.5 121,-79.5 193,-79.5 193,-58.5 121,-58.5"/>
<text text-anchor="middle" x="157" y="-66.5" font-family="Helvetica,sans-Serif" font-size="10.00">Request.hpp</text>
</a>
</g>
<!-- Node14&#45;&gt;Node18 -->
<g id="edge44" class="edge"><title>Node14&#45;&gt;Node18</title>
<path fill="none" stroke="midnightblue" d="M201.131,-232.377C193.512,-204.172 172.67,-127.012 162.597,-89.7203"/>
<polygon fill="midnightblue" stroke="midnightblue" points="165.938,-88.669 159.952,-79.9277 159.181,-90.4944 165.938,-88.669"/>
</g>
<!-- Node16&#45;&gt;Node7 -->
<g id="edge42" class="edge"><title>Node16&#45;&gt;Node7</title>
<path fill="none" stroke="midnightblue" d="M672.261,-174.362C663.059,-166.023 650.06,-154.242 639.328,-144.516"/>
<polygon fill="midnightblue" stroke="midnightblue" points="641.424,-141.692 631.664,-137.571 636.724,-146.879 641.424,-141.692"/>
</g>
<!-- Node17 -->
<g id="node37" class="node"><title>Node17</title>
<polygon fill="none" stroke="#bfbfbf" points="663.5,-116.5 663.5,-137.5 704.5,-137.5 704.5,-116.5 663.5,-116.5"/>
<text text-anchor="middle" x="684" y="-124.5" font-family="Helvetica,sans-Serif" font-size="10.00">ctime</text>
</g>
<!-- Node16&#45;&gt;Node17 -->
<g id="edge40" class="edge"><title>Node16&#45;&gt;Node17</title>
<path fill="none" stroke="midnightblue" d="M684,-174.362C684,-166.922 684,-156.743 684,-147.728"/>
<polygon fill="midnightblue" stroke="midnightblue" points="687.5,-147.571 684,-137.571 680.5,-147.571 687.5,-147.571"/>
</g>
<!-- Node18&#45;&gt;Node9 -->
<g id="edge46" class="edge"><title>Node18&#45;&gt;Node9</title>
<path fill="none" stroke="midnightblue" d="M151.131,-58.3619C146.845,-50.5949 140.913,-39.8426 135.784,-30.5458"/>
<polygon fill="midnightblue" stroke="midnightblue" points="138.727,-28.6357 130.832,-21.5707 132.598,-32.0172 138.727,-28.6357"/>
</g>
<!-- Node20&#45;&gt;Node4 -->
<g id="edge58" class="edge"><title>Node20&#45;&gt;Node4</title>
<path fill="none" stroke="midnightblue" d="M525.75,-290.497C500.538,-281.123 463.424,-267.324 435.688,-257.012"/>
<polygon fill="midnightblue" stroke="midnightblue" points="436.896,-253.727 426.303,-253.523 434.457,-260.289 436.896,-253.727"/>
</g>
<!-- Node20&#45;&gt;Node13 -->
<g id="edge56" class="edge"><title>Node20&#45;&gt;Node13</title>
<path fill="none" stroke="midnightblue" d="M554.911,-290.453C556.59,-270.087 560,-223.92 560,-185 560,-185 560,-185 560,-127 560,-68.5297 488.297,-35.8439 442.744,-20.9784"/>
<polygon fill="midnightblue" stroke="midnightblue" points="443.766,-17.6311 433.178,-17.9908 441.68,-24.3128 443.766,-17.6311"/>
</g>
<!-- Node21 -->
<g id="node48" class="node"><title>Node21</title>
<polygon fill="none" stroke="#bfbfbf" points="482,-232.5 482,-253.5 532,-253.5 532,-232.5 482,-232.5"/>
<text text-anchor="middle" x="507" y="-240.5" font-family="Helvetica,sans-Serif" font-size="10.00">fstream</text>
</g>
<!-- Node20&#45;&gt;Node21 -->
<g id="edge54" class="edge"><title>Node20&#45;&gt;Node21</title>
<path fill="none" stroke="midnightblue" d="M545.379,-290.362C538.82,-282.268 529.634,-270.932 521.894,-261.38"/>
<polygon fill="midnightblue" stroke="midnightblue" points="524.581,-259.136 515.566,-253.571 519.142,-263.544 524.581,-259.136"/>
</g>
<!-- Node22&#45;&gt;Node16 -->
<g id="edge62" class="edge"><title>Node22&#45;&gt;Node16</title>
<path fill="none" stroke="midnightblue" d="M684,-290.295C684,-271.131 684,-230.654 684,-205.843"/>
<polygon fill="midnightblue" stroke="midnightblue" points="687.5,-205.679 684,-195.679 680.5,-205.679 687.5,-205.679"/>
</g>
<!-- Node23&#45;&gt;Node16 -->
<g id="edge66" class="edge"><title>Node23&#45;&gt;Node16</title>
<path fill="none" stroke="midnightblue" d="M833.773,-290.295C804.918,-270.009 742.092,-225.84 707.688,-201.653"/>
<polygon fill="midnightblue" stroke="midnightblue" points="709.384,-198.567 699.19,-195.679 705.358,-204.294 709.384,-198.567"/>
</g>
<!-- Node24&#45;&gt;Node16 -->
<g id="edge70" class="edge"><title>Node24&#45;&gt;Node16</title>
<path fill="none" stroke="midnightblue" d="M984.748,-290.398C924.788,-269.385 790.879,-222.456 723.838,-198.961"/>
<polygon fill="midnightblue" stroke="midnightblue" points="724.656,-195.539 714.062,-195.535 722.341,-202.146 724.656,-195.539"/>
</g>
</g>
</svg>
