<?xml version="1.0" encoding="UTF-8" standalone="no"?>
<!DOCTYPE svg PUBLIC "-//W3C//DTD SVG 1.1//EN"
 "http://www.w3.org/Graphics/SVG/1.1/DTD/svg11.dtd">
<!-- Generated by graphviz version 2.26.3 (20100126.1600)
 -->
<!-- Title: G Pages: 1 -->
<svg width="138pt" height="542pt"
 viewBox="0.00 0.00 138.00 542.00" xmlns="http://www.w3.org/2000/svg" xmlns:xlink="http://www.w3.org/1999/xlink">
<g id="graph1" class="graph" transform="scale(1 1) rotate(0) translate(4 538)">
<title>G</title>
<!-- Node1 -->
<g id="node1" class="node"><title>Node1</title>
<polygon fill="#bfbfbf" stroke="black" points="2.5,-1 2.5,-103 127.5,-103 127.5,-1 2.5,-1"/>
<text text-anchor="middle" x="65" y="-90" font-family="Helvetica,sans-Serif" font-size="10.00">ResponseOkBuffered</text>
<polyline fill="none" stroke="black" points="2.5,-82 127.5,-82 "/>
<text text-anchor="start" x="10.5" y="-69" font-family="Helvetica,sans-Serif" font-size="10.00">&#45; content</text>
<text text-anchor="start" x="10.5" y="-56" font-family="Helvetica,sans-Serif" font-size="10.00">&#45; etag</text>
<polyline fill="none" stroke="black" points="2.5,-48 127.5,-48 "/>
<text text-anchor="start" x="10.5" y="-35" font-family="Helvetica,sans-Serif" font-size="10.00">+ ResponseOkBuffered()</text>
<text text-anchor="start" x="10.5" y="-22" font-family="Helvetica,sans-Serif" font-size="10.00"># writeHeader()</text>
<text text-anchor="start" x="10.5" y="-9" font-family="Helvetica,sans-Serif" font-size="10.00"># writeContent()</text>
</g>
<!-- Node2 -->
<g id="node2" class="node"><title>Node2</title>
<a xlink:href="class_response_ok.html" target="_top" xlink:title="An abstract base for a 200 OK response.">
<polygon fill="none" stroke="black" points="21,-140.5 21,-203.5 109,-203.5 109,-140.5 21,-140.5"/>
<text text-anchor="middle" x="65" y="-190.5" font-family="Helvetica,sans-Serif" font-size="10.00">ResponseOk</text>
<polyline fill="none" stroke="black" points="21,-182.5 109,-182.5 "/>
<text text-anchor="middle" x="65" y="-169.5" font-family="Helvetica,sans-Serif" font-size="10.00"> </text>
<polyline fill="none" stroke="black" points="21,-161.5 109,-161.5 "/>
<text text-anchor="start" x="29" y="-148.5" font-family="Helvetica,sans-Serif" font-size="10.00"># ResponseOk()</text>
</a>
</g>
<!-- Node2&#45;&gt;Node1 -->
<g id="edge2" class="edge"><title>Node2&#45;&gt;Node1</title>
<path fill="none" stroke="midnightblue" d="M65,-130.205C65,-121.513 65,-112.259 65,-103.272"/>
<polygon fill="none" stroke="midnightblue" points="61.5001,-130.471 65,-140.471 68.5001,-130.471 61.5001,-130.471"/>
</g>
<!-- Node3 -->
<g id="node4" class="node"><title>Node3</title>
<a xlink:href="class_response_with_content.html" target="_top" xlink:title="An abstract base for a response that sends some content.">
<polygon fill="none" stroke="black" points="0,-240.5 0,-329.5 130,-329.5 130,-240.5 0,-240.5"/>
<text text-anchor="middle" x="65" y="-316.5" font-family="Helvetica,sans-Serif" font-size="10.00">ResponseWithContent</text>
<polyline fill="none" stroke="black" points="0,-308.5 130,-308.5 "/>
<text text-anchor="start" x="8" y="-295.5" font-family="Helvetica,sans-Serif" font-size="10.00"># contentLength</text>
<text text-anchor="start" x="8" y="-282.5" font-family="Helvetica,sans-Serif" font-size="10.00"># contentType</text>
<polyline fill="none" stroke="black" points="0,-274.5 130,-274.5 "/>
<text text-anchor="start" x="8" y="-261.5" font-family="Helvetica,sans-Serif" font-size="10.00"># ResponseWithContent()</text>
<text text-anchor="start" x="8" y="-248.5" font-family="Helvetica,sans-Serif" font-size="10.00"># writeHeader()</text>
</a>
</g>
<!-- Node3&#45;&gt;Node2 -->
<g id="edge4" class="edge"><title>Node3&#45;&gt;Node2</title>
<path fill="none" stroke="midnightblue" d="M65,-230.196C65,-221.146 65,-212.037 65,-203.801"/>
<polygon fill="none" stroke="midnightblue" points="61.5001,-230.339 65,-240.339 68.5001,-230.339 61.5001,-230.339"/>
</g>
<!-- Node4 -->
<g id="node6" class="node"><title>Node4</title>
<a xlink:href="class_response.html" target="_top" xlink:title="An abstract base for a response to an HTTP request.">
<polygon fill="none" stroke="black" points="4.5,-366.5 4.5,-533.5 125.5,-533.5 125.5,-366.5 4.5,-366.5"/>
<text text-anchor="middle" x="65" y="-520.5" font-family="Helvetica,sans-Serif" font-size="10.00">Response</text>
<polyline fill="none" stroke="black" points="4.5,-512.5 125.5,-512.5 "/>
<text text-anchor="start" x="12.5" y="-499.5" font-family="Helvetica,sans-Serif" font-size="10.00">&#45; responseName</text>
<polyline fill="none" stroke="black" points="4.5,-491.5 125.5,-491.5 "/>
<text text-anchor="start" x="12.5" y="-478.5" font-family="Helvetica,sans-Serif" font-size="10.00">+ ~Response()</text>
<text text-anchor="start" x="12.5" y="-465.5" font-family="Helvetica,sans-Serif" font-size="10.00">+ respond()</text>
<text text-anchor="start" x="12.5" y="-452.5" font-family="Helvetica,sans-Serif" font-size="10.00"># Response()</text>
<text text-anchor="start" x="12.5" y="-439.5" font-family="Helvetica,sans-Serif" font-size="10.00"># writeHeader()</text>
<text text-anchor="start" x="12.5" y="-426.5" font-family="Helvetica,sans-Serif" font-size="10.00"># writeContent()</text>
<text text-anchor="start" x="12.5" y="-413.5" font-family="Helvetica,sans-Serif" font-size="10.00"># writeDate()</text>
<text text-anchor="start" x="12.5" y="-400.5" font-family="Helvetica,sans-Serif" font-size="10.00"># writeDate()</text>
<text text-anchor="start" x="12.5" y="-387.5" font-family="Helvetica,sans-Serif" font-size="10.00">&#45; writeCommonHeader()</text>
<text text-anchor="start" x="12.5" y="-374.5" font-family="Helvetica,sans-Serif" font-size="10.00">&#45; writeResponseName()</text>
</a>
</g>
<!-- Node4&#45;&gt;Node3 -->
<g id="edge6" class="edge"><title>Node4&#45;&gt;Node3</title>
<path fill="none" stroke="midnightblue" d="M65,-355.766C65,-346.708 65,-337.843 65,-329.619"/>
<polygon fill="none" stroke="midnightblue" points="61.5001,-356.05 65,-366.05 68.5001,-356.05 61.5001,-356.05"/>
</g>
</g>
</svg>
