<?xml version="1.0" encoding="UTF-8" standalone="no"?>
<!DOCTYPE svg PUBLIC "-//W3C//DTD SVG 1.1//EN"
 "http://www.w3.org/Graphics/SVG/1.1/DTD/svg11.dtd">
<!-- Generated by graphviz version 2.26.3 (20100126.1600)
 -->
<!-- Title: G Pages: 1 -->
<svg width="138pt" height="302pt"
 viewBox="0.00 0.00 138.00 302.00" xmlns="http://www.w3.org/2000/svg" xmlns:xlink="http://www.w3.org/1999/xlink">
<g id="graph1" class="graph" transform="scale(1 1) rotate(0) translate(4 298)">
<title>G</title>
<!-- Node1 -->
<g id="node1" class="node"><title>Node1</title>
<polygon fill="#bfbfbf" stroke="black" points="0,-0.5 0,-89.5 130,-89.5 130,-0.5 0,-0.5"/>
<text text-anchor="middle" x="65" y="-76.5" font-family="Helvetica,sans-Serif" font-size="10.00">ResponseBadRequest</text>
<polyline fill="none" stroke="black" points="0,-68.5 130,-68.5 "/>
<text text-anchor="middle" x="65" y="-55.5" font-family="Helvetica,sans-Serif" font-size="10.00"> </text>
<polyline fill="none" stroke="black" points="0,-47.5 130,-47.5 "/>
<text text-anchor="start" x="8" y="-34.5" font-family="Helvetica,sans-Serif" font-size="10.00">+ ResponseBadRequest()</text>
<text text-anchor="start" x="8" y="-21.5" font-family="Helvetica,sans-Serif" font-size="10.00"># writeHeader()</text>
<text text-anchor="start" x="8" y="-8.5" font-family="Helvetica,sans-Serif" font-size="10.00"># writeContent()</text>
</g>
<!-- Node2 -->
<g id="node2" class="node"><title>Node2</title>
<a xlink:href="class_response.html" target="_top" xlink:title="An abstract base for a response to an HTTP request.">
<polygon fill="none" stroke="black" points="4.5,-126.5 4.5,-293.5 125.5,-293.5 125.5,-126.5 4.5,-126.5"/>
<text text-anchor="middle" x="65" y="-280.5" font-family="Helvetica,sans-Serif" font-size="10.00">Response</text>
<polyline fill="none" stroke="black" points="4.5,-272.5 125.5,-272.5 "/>
<text text-anchor="start" x="12.5" y="-259.5" font-family="Helvetica,sans-Serif" font-size="10.00">&#45; responseName</text>
<polyline fill="none" stroke="black" points="4.5,-251.5 125.5,-251.5 "/>
<text text-anchor="start" x="12.5" y="-238.5" font-family="Helvetica,sans-Serif" font-size="10.00">+ ~Response()</text>
<text text-anchor="start" x="12.5" y="-225.5" font-family="Helvetica,sans-Serif" font-size="10.00">+ respond()</text>
<text text-anchor="start" x="12.5" y="-212.5" font-family="Helvetica,sans-Serif" font-size="10.00"># Response()</text>
<text text-anchor="start" x="12.5" y="-199.5" font-family="Helvetica,sans-Serif" font-size="10.00"># writeHeader()</text>
<text text-anchor="start" x="12.5" y="-186.5" font-family="Helvetica,sans-Serif" font-size="10.00"># writeContent()</text>
<text text-anchor="start" x="12.5" y="-173.5" font-family="Helvetica,sans-Serif" font-size="10.00"># writeDate()</text>
<text text-anchor="start" x="12.5" y="-160.5" font-family="Helvetica,sans-Serif" font-size="10.00"># writeDate()</text>
<text text-anchor="start" x="12.5" y="-147.5" font-family="Helvetica,sans-Serif" font-size="10.00">&#45; writeCommonHeader()</text>
<text text-anchor="start" x="12.5" y="-134.5" font-family="Helvetica,sans-Serif" font-size="10.00">&#45; writeResponseName()</text>
</a>
</g>
<!-- Node2&#45;&gt;Node1 -->
<g id="edge2" class="edge"><title>Node2&#45;&gt;Node1</title>
<path fill="none" stroke="midnightblue" d="M65,-115.766C65,-106.708 65,-97.8427 65,-89.6191"/>
<polygon fill="none" stroke="midnightblue" points="61.5001,-116.05 65,-126.05 68.5001,-116.05 61.5001,-116.05"/>
</g>
</g>
</svg>
