<?xml version="1.0" encoding="UTF-8" standalone="no"?>
<!DOCTYPE svg PUBLIC "-//W3C//DTD SVG 1.1//EN"
 "http://www.w3.org/Graphics/SVG/1.1/DTD/svg11.dtd">
<!-- Generated by graphviz version 2.26.3 (20100126.1600)
 -->
<!-- Title: G Pages: 1 -->
<svg width="250pt" height="150pt"
 viewBox="0.00 0.00 250.00 150.00" xmlns="http://www.w3.org/2000/svg" xmlns:xlink="http://www.w3.org/1999/xlink">
<g id="graph1" class="graph" transform="scale(1 1) rotate(0) translate(4 146)">
<title>G</title>
<!-- Node1 -->
<g id="node1" class="node"><title>Node1</title>
<a xlink:href="class_exception.html" target="_top" xlink:title="An exception.">
<polygon fill="none" stroke="black" points="0,-60.5 0,-81.5 60,-81.5 60,-60.5 0,-60.5"/>
<text text-anchor="middle" x="30" y="-68.5" font-family="Helvetica,sans-Serif" font-size="10.00">Exception</text>
</a>
</g>
<!-- Node2 -->
<g id="node3" class="node"><title>Node2</title>
<a xlink:href="class_file_i_o_exception.html" target="_top" xlink:title="An exception thrown in case of a file I/O call error.">
<polygon fill="none" stroke="black" points="126,-120.5 126,-141.5 212,-141.5 212,-120.5 126,-120.5"/>
<text text-anchor="middle" x="169" y="-128.5" font-family="Helvetica,sans-Serif" font-size="10.00">FileIOException</text>
</a>
</g>
<!-- Node1&#45;&gt;Node2 -->
<g id="edge2" class="edge"><title>Node1&#45;&gt;Node2</title>
<path fill="none" stroke="midnightblue" d="M53.4839,-87.4292C65.7203,-95.4118 81.1894,-104.631 96,-111 105.416,-115.049 115.871,-118.488 125.858,-121.312"/>
<polygon fill="midnightblue" stroke="midnightblue" points="55.0788,-84.2852 44.8212,-81.6335 51.1864,-90.1032 55.0788,-84.2852"/>
</g>
<!-- Node3 -->
<g id="node5" class="node"><title>Node3</title>
<a xlink:href="class_ini_parser_exception.html" target="_top" xlink:title="An exception thrown in case of INI file parsing error.">
<polygon fill="none" stroke="black" points="119.5,-80.5 119.5,-101.5 218.5,-101.5 218.5,-80.5 119.5,-80.5"/>
<text text-anchor="middle" x="169" y="-88.5" font-family="Helvetica,sans-Serif" font-size="10.00">IniParserException</text>
</a>
</g>
<!-- Node1&#45;&gt;Node3 -->
<g id="edge4" class="edge"><title>Node1&#45;&gt;Node3</title>
<path fill="none" stroke="midnightblue" d="M70.3724,-76.809C85.7255,-79.0181 103.394,-81.5603 119.497,-83.8772"/>
<polygon fill="midnightblue" stroke="midnightblue" points="70.5575,-73.2996 60.1609,-75.3397 69.5605,-80.2283 70.5575,-73.2996"/>
</g>
<!-- Node4 -->
<g id="node7" class="node"><title>Node4</title>
<a xlink:href="class_unknown_ini_entry_exception.html" target="_top" xlink:title="An exception thrown when a nonexistent INI config entry is requested.">
<polygon fill="none" stroke="black" points="101.5,-40.5 101.5,-61.5 236.5,-61.5 236.5,-40.5 101.5,-40.5"/>
<text text-anchor="middle" x="169" y="-48.5" font-family="Helvetica,sans-Serif" font-size="10.00">UnknownIniEntryException</text>
</a>
</g>
<!-- Node1&#45;&gt;Node4 -->
<g id="edge6" class="edge"><title>Node1&#45;&gt;Node4</title>
<path fill="none" stroke="midnightblue" d="M70.2908,-65.2028C80.0057,-63.8049 90.6515,-62.2732 101.243,-60.7492"/>
<polygon fill="midnightblue" stroke="midnightblue" points="69.5605,-61.7717 60.1609,-66.6603 70.5575,-68.7004 69.5605,-61.7717"/>
</g>
<!-- Node5 -->
<g id="node9" class="node"><title>Node5</title>
<a xlink:href="class_unknown_ini_section_exception.html" target="_top" xlink:title="An exception thrown when a nonexistent INI config section is requested.">
<polygon fill="none" stroke="black" points="96.5,-0.5 96.5,-21.5 241.5,-21.5 241.5,-0.5 96.5,-0.5"/>
<text text-anchor="middle" x="169" y="-8.5" font-family="Helvetica,sans-Serif" font-size="10.00">UnknownIniSectionException</text>
</a>
</g>
<!-- Node1&#45;&gt;Node5 -->
<g id="edge8" class="edge"><title>Node1&#45;&gt;Node5</title>
<path fill="none" stroke="midnightblue" d="M53.4839,-54.5708C65.7203,-46.5882 81.1894,-37.3693 96,-31 104.45,-27.366 113.737,-24.224 122.772,-21.5766"/>
<polygon fill="midnightblue" stroke="midnightblue" points="51.1864,-51.8968 44.8212,-60.3665 55.0788,-57.7148 51.1864,-51.8968"/>
</g>
</g>
</svg>
